Week 10 Assignment DATA607 - Sentiment Analysis
…
The following code is from Chapter 2 of Text Mining with R - A Tidy Approach, entitled Sentiment Analysis with Tidy Data. A full citation of the code can be found at the end of the code excerpt.

2.1 - The Sentiments Dataset

library(janeaustenr)
library(tidyverse)
library(stringr)
library(tidytext)

library(tidytext)

get_sentiments("afinn")

## # A tibble: 2,477 x 2
##    word       value
##    <chr>      <dbl>
##  1 abandon       -2
##  2 abandoned     -2
##  3 abandons      -2
##  4 abducted      -2
##  5 abduction     -2
##  6 abductions    -2
##  7 abhor         -3
##  8 abhorred      -3
##  9 abhorrent     -3
## 10 abhors        -3
## # ... with 2,467 more rows

get_sentiments("bing")

## # A tibble: 6,786 x 2
##    word        sentiment
##    <chr>       <chr>    
##  1 2-faces     negative 
##  2 abnormal    negative 
##  3 abolish     negative 
##  4 abominable  negative 
##  5 abominably  negative 
##  6 abominate   negative 
##  7 abomination negative 
##  8 abort       negative 
##  9 aborted     negative 
## 10 aborts      negative 
## # ... with 6,776 more rows

get_sentiments("nrc")

## # A tibble: 13,901 x 2
##    word        sentiment
##    <chr>       <chr>    
##  1 abacus      trust    
##  2 abandon     fear     
##  3 abandon     negative 
##  4 abandon     sadness  
##  5 abandoned   anger    
##  6 abandoned   fear     
##  7 abandoned   negative 
##  8 abandoned   sadness  
##  9 abandonment anger    
## 10 abandonment fear     
## # ... with 13,891 more rows

2.2 Sentiment Analaysis with Inner Join

tidy_books <- austen_books() %>%
  group_by(book) %>%
  mutate(linenumber = row_number(),
         chapter = cumsum(str_detect(text, regex("^chapter [\\divxlc]", 
                                                 ignore_case = TRUE)))) %>%
  ungroup() %>%
  unnest_tokens(word, text)
tidy_books

## # A tibble: 725,055 x 4
##    book                linenumber chapter word       
##    <fct>                    <int>   <int> <chr>      
##  1 Sense & Sensibility          1       0 sense      
##  2 Sense & Sensibility          1       0 and        
##  3 Sense & Sensibility          1       0 sensibility
##  4 Sense & Sensibility          3       0 by         
##  5 Sense & Sensibility          3       0 jane       
##  6 Sense & Sensibility          3       0 austen     
##  7 Sense & Sensibility          5       0 1811       
##  8 Sense & Sensibility         10       1 chapter    
##  9 Sense & Sensibility         10       1 1          
## 10 Sense & Sensibility         13       1 the        
## # ... with 725,045 more rows

nrc_joy <- get_sentiments("nrc") %>% 
  filter(sentiment == "joy")

tidy_books %>%
  filter(book == "Emma") %>%
  inner_join(nrc_joy) %>%
  count(word, sort = TRUE)

## Joining, by = "word"

## # A tibble: 303 x 2
##    word        n
##    <chr>   <int>
##  1 good      359
##  2 young     192
##  3 friend    166
##  4 hope      143
##  5 happy     125
##  6 love      117
##  7 deal       92
##  8 found      92
##  9 present    89
## 10 kind       82
## # ... with 293 more rows

library(tidyr)

jane_austen_sentiment <- tidy_books %>%
  inner_join(get_sentiments("bing")) %>%
  count(book, index = linenumber %/% 80, sentiment) %>%
  spread(sentiment, n, fill = 0) %>%
  mutate(sentiment = positive - negative)

## Joining, by = "word"

jane_austen_sentiment

## # A tibble: 920 x 5
##    book                index negative positive sentiment
##    <fct>               <dbl>    <dbl>    <dbl>     <dbl>
##  1 Sense & Sensibility     0       16       32        16
##  2 Sense & Sensibility     1       19       53        34
##  3 Sense & Sensibility     2       12       31        19
##  4 Sense & Sensibility     3       15       31        16
##  5 Sense & Sensibility     4       16       34        18
##  6 Sense & Sensibility     5       16       51        35
##  7 Sense & Sensibility     6       24       40        16
##  8 Sense & Sensibility     7       23       51        28
##  9 Sense & Sensibility     8       30       40        10
## 10 Sense & Sensibility     9       15       19         4
## # ... with 910 more rows
…
2.3 Comparing the three sentiment dictionaries

pride_prejudice <- tidy_books %>% 
  filter(book == "Pride & Prejudice")

pride_prejudice

## # A tibble: 122,204 x 4
##    book              linenumber chapter word     
##    <fct>                  <int>   <int> <chr>    
##  1 Pride & Prejudice          1       0 pride    
##  2 Pride & Prejudice          1       0 and      
##  3 Pride & Prejudice          1       0 prejudice
##  4 Pride & Prejudice          3       0 by       
##  5 Pride & Prejudice          3       0 jane     
##  6 Pride & Prejudice          3       0 austen   
##  7 Pride & Prejudice          7       1 chapter  
##  8 Pride & Prejudice          7       1 1        
##  9 Pride & Prejudice         10       1 it       
## 10 Pride & Prejudice         10       1 is       
## # ... with 122,194 more rows
…
2.4 Most Common Positive and Negative Words

bing_word_counts <- tidy_books %>%
  inner_join(get_sentiments("bing")) %>%
  count(word, sentiment, sort = TRUE) %>%
  ungroup()

## Joining, by = "word"

bing_word_counts

## # A tibble: 2,585 x 3
##    word     sentiment     n
##    <chr>    <chr>     <int>
##  1 miss     negative   1855
##  2 well     positive   1523
##  3 good     positive   1380
##  4 great    positive    981
##  5 like     positive    725
##  6 better   positive    639
##  7 enough   positive    613
##  8 happy    positive    534
##  9 love     positive    495
## 10 pleasure positive    462
## # ... with 2,575 more rows
…
Part II - Taking the Reins

For part II of this project, I have chosen to analyze text from the book The Count of Monte Cristo by Alexandre Dumas, which was written in 1844. To get the text of this book, I used the gutenbergr library, which allows for the search and download of public domain texts.

library(gutenbergr)

## Warning: package 'gutenbergr' was built under R version 3.6.3

count_of_monte_cristo <- gutenberg_download(1184) 

Now that we have the book downloaded, lets take a look at its structure.

count_of_monte_cristo

## # A tibble: 61,339 x 2
##    gutenberg_id text                       
##           <int> <chr>                      
##  1         1184 "THE COUNT OF MONTE CRISTO"
##  2         1184 ""                         
##  3         1184 ""                         
##  4         1184 ""                         
##  5         1184 "by Alexandre Dumas [pre]"
##  6         1184 ""                         
##  7         1184 ""                         
##  8         1184 ""                         
##  9         1184 ""                         
## 10         1184 ""                         
## # ... with 61,329 more rows

In looking at the above output, this text is not in a tidy text format and will need to be transformed before analysis can take place. In addition, the first 159 lines of this text contain the table of contents, so we will exclude those lines. We will use the unnest_tokens() function from the tidytext library to break each word into an individual row.

#removing the first 159 rows of text which are table of contents
count_cristo <- count_of_monte_cristo[c(159:nrow(count_of_monte_cristo)),]

#using unnest_tokens to have each line be broken into indidual rows. 
comc <- count_cristo %>% unnest_tokens(word, text)
comc

## # A tibble: 464,757 x 2
##    gutenberg_id word      
##           <int> <chr>     
##  1         1184 chapter   
##  2         1184 1         
##  3         1184 marseilles
##  4         1184 the       
##  5         1184 arrival   
##  6         1184 on        
##  7         1184 the       
##  8         1184 24th      
##  9         1184 of        
## 10         1184 february  
## # ... with 464,747 more rows
…
In contrast to the chart above of words with negative sentiment, it looks like the word well here is the obvious winner, adding the most positive sentiment to this novel. The word like also is adding to the positive sentiment above the other words as well.

Now that weve got a feel for the overall novel as a whole, lets see if we can get a feel for how the sentiment changes over the course of the novel. To do this, well experiment with a different lexicon, afinn, which gives a value from -5 to 5 for each word. In addition, well start this analysis by looking at our original data set (excluding the table of contents), which shows full lines of text as seen below.

count_cristo

## # A tibble: 61,181 x 2
##    gutenberg_id text                                                            
##           <int> <chr>                                                           
##  1         1184 " Chapter 1. MarseillesThe Arrival"                            
##  2         1184 ""                                                              
##  3         1184 "On the 24th of February, 1815, the look-out at Notre-Dame de l~
##  4         1184 "signalled the three-master, the _Pharaon_ from Smyrna, Trieste~
##  5         1184 "Naples."                                                       
##  6         1184 ""                                                              
##  7         1184 "As usual, a pilot put off immediately, and rounding the Chtea~
##  8         1184 "got on board the vessel between Cape Morgiou and Rion island." 
##  9         1184 ""                                                              
## 10         1184 "Immediately, and according to custom, the ramparts of Fort Sai~
## # ... with 61,171 more rows

We will create two new columns, one showing the original row number, and the other showing which chapter the row came from. This will give us the flexibility to look at the sentiment over the course of both chapters and line numbers.

comc_index <- count_cristo %>% 
  filter(text != "") %>%
  mutate(linenumber = row_number(),
         chapter = cumsum(str_detect(text, regex("(?<=Chapter )([\\dII]{1,3})", ignore_case =  TRUE)))) 

comc_index

## # A tibble: 45,040 x 4
##    gutenberg_id text                                          linenumber chapter
##           <int> <chr>                                              <int>   <int>
##  1         1184 " Chapter 1. MarseillesThe Arrival"                   1       1
##  2         1184 "On the 24th of February, 1815, the look-out~          2       1
##  3         1184 "signalled the three-master, the _Pharaon_ f~          3       1
##  4         1184 "Naples."                                              4       1
##  5         1184 "As usual, a pilot put off immediately, and ~          5       1
##  6         1184 "got on board the vessel between Cape Morgio~          6       1
##  7         1184 "Immediately, and according to custom, the r~          7       1
##  8         1184 "were covered with spectators; it is always ~          8       1
##  9         1184 "ship to come into port, especially when thi~          9       1
## 10         1184 "has been built, rigged, and laden at the ol~         10       1
## # ... with 45,030 more rows
…
