Project 2 - Data Transformation
…
As you can see from the first few rows, the sales region columns are in a wide format. To fix that we are going to need to gather those sales region columns into just two columns, a key column and a value column. In doing this, some of the columns will become obsolete to us for our analysis, such as Total Shipped and Global Sales, so well remove those upfront before gathering. After gathering our data, we notice that there are many nulls in our sales value. This is because many of the games in this particular data set do not have regional sales information. Since our analysis specifically asks to look at regional sales data, well go ahead and exclude these null values from our analysis. As the last step of our cleaning process, well rename the region names to something more understandable (i.e.NA_Sales = North America).

games_gathered <- games %>% dplyr::select(-Total_Shipped, -Global_Sales) %>%
  tidyr::gather(NA_Sales, PAL_Sales, JP_Sales, Other_Sales, key = "sales_location", value = "sales") %>%
  filter(!is.na(sales)) %>%
  mutate(sales_location = ifelse(sales_location == "NA_Sales", "North America", 
                                 ifelse(sales_location == "PAL_Sales", "Europe", 
                                        ifelse(sales_location == "JP_Sales", "Japan", "Other"))))

games_gathered 

## # A tibble: 48,718 x 12
##     Rank Name  Genre ESRB_Rating Platform Publisher Developer Critic_Score
##    <dbl> <chr> <chr> <chr>       <chr>    <chr>     <chr>            <dbl>
##  1    20 Gran~ Acti~ M           PS3      Rockstar~ Rockstar~          9.4
##  2    21 Gran~ Acti~ M           PS4      Rockstar~ Rockstar~          9.7
##  3    31 Gran~ Acti~ M           PS2      Rockstar~ Rockstar~          9.6
##  4    33 Gran~ Acti~ M           X360     Rockstar~ Rockstar~         NA  
##  5    35 Call~ Shoo~ M           PS4      Activisi~ Treyarch          NA  
##  6    41 Call~ Shoo~ M           X360     Activisi~ Infinity~          8.7
##  7    42 Call~ Shoo~ M           X360     Activisi~ Treyarch           8.8
##  8    46 Red ~ Acti~ M           PS4      Rockstar~ Rockstar~          9.8
##  9    47 Call~ Shoo~ M           X360     Activisi~ Treyarch          NA  
## 10    48 Call~ Shoo~ M           PS3      Activisi~ Treyarch          NA  
## # ... with 48,708 more rows, and 4 more variables: User_Score <dbl>,
## #   Year <dbl>, sales_location <chr>, sales <dbl>
…
Looking at the first few rows above, it looks like our data came in correctly. Lets move forward with gathering the year rows into a key column and the values into a value column:

marriage_gather <- marriage %>% gather("2016":"1990", key = "year", value = "rate")
marriage_gather

## # A tibble: 1,020 x 5
##    state                census_division    census_region year   rate
##    <chr>                <chr>              <chr>         <chr> <dbl>
##  1 Alabama              East South Central South         2016   7.15
##  2 Alaska               Pacific            West          2016   7.10
##  3 Arizona              Mountain           West          2016   5.93
##  4 Arkansas             West South Central South         2016   9.86
##  5 California           Pacific            West          2016   6.46
##  6 Colorado             Mountain           West          2016   7.43
##  7 Connecticut          New England        Northeast     2016   5.62
##  8 Delaware             South Atlantic     South         2016   5.61
##  9 District of Columbia <NA>               <NA>          2016   8.15
## 10 Florida              South Atlantic     South         2016   8.13
## # ... with 1,010 more rows
…
Next, youll notice that this data set actually includes a confidence interval for the estimates they are making (Uncertainty Bounds), however, for our purposes, we will just use the Median value for our analysis, so lets filter out data related to the Lower and Upper bounds.

mortality_final <- mortality_long %>% filter(`Uncertainty bounds` == "Median")
mortality_final

## # A tibble: 319 x 4
##    `Region Name`                   `Uncertainty bounds` year  deaths
##    <chr>                           <chr>                <chr>  <dbl>
##  1 Sub-Saharan Africa              Median               1990   180. 
##  2 West and Central Africa         Median               1990   197. 
##  3 Eastern and Southern Africa     Median               1990   164. 
##  4 Middle East and North Africa    Median               1990    65.0
##  5 South Asia                      Median               1990   130. 
##  6 East Asia and Pacific           Median               1990    56.8
##  7 Latin America and Caribbean     Median               1990    54.6
##  8 North America                   Median               1990    11.0
##  9 Europe and Central Asia         Median               1990    30.8
## 10 Eastern Europe and Central Asia Median               1990    46.4
## # ... with 309 more rows
…
